# type de champ | nom de la variable (lettres, - et _) | intitulé du champ
# h | Inter-titre (engendre une balise h3)
#text | wpof_terms_formation_tarif | Tarif
h | Administratif
text | wpof_terms_exo_tva | Exonération de TVA
h | Sessions de formation
text | wpof_terms_no_session | Pas de session programmée pour l'instant
text | wpof_terms_tarif_inter | Explication tarif inter
text | wpof_terms_tarif_groupe | Que faire pour un tarif de groupe
text | wpof_terms_connexion_session | Avertissement qu'il est obligatoire d'être connecté pour s'inscrire
text | wpof_terms_msg_debut_pre_inscription | Message à afficher au début du formulaire de pré-inscription
text | wpof_terms_msg_validation_pre_inscription | Message à afficher juste avant le bouton pour valider la pré-inscription
text | wpof_terms_question_employeur | Demander si la personne a un employeur ou non
text | wpof_terms_autres_frais | Frais annexes dans le cas d'une formation en intra (texte par défaut, modifiable dans chaque session)
h | Gestion des documents administratifs de la formation
text | wpof_doc_last_modif | Signaler la date et l'heure de dernière modification
text | wpof_doc_alerte_creation | Alerte en cas de volonté de créer le document alors qu'il est déjà signé
text | wpof_doc_demande_valid | Indiquer que cela sert à demander la validation du document
text | wpof_doc_diffuser | Info-bulle pour le bouton diffuser (documents)
text | wpof_doc_supprimer | Info-bulle pour le bouton supprimer (documents)
text | wpof_doc_scan | Info-bulle pour le bouton ouvrant la fenêtre de téléversement de documents scannés
text | wpof_doc_pas_de_docs | Onglet documents administratifs, message pour dire qu'il n'y a rien pour l'instant
text | wpof_doc_emarge_recu_ri | En-tête de colonne de la feuille d'émargement demandant au stagiaire s'il a bien eu le règlement intérieur
